…
``` r
#summarize within cities to obtain the total number of homicides and the number of unsolved homicides 
homicide_df |>
  group_by (city) |>
  summarize(total_homicides=n(),
            unsolved_homicides=sum(disposition %in% c("Closed without arrest","Closed by arrest")))
```

    ## # A tibble: 50 × 3
    ##    city        total_homicides unsolved_homicides
    ##    <chr>                 <int>              <int>
    ##  1 Albuquerque             378                284
    ##  2 Atlanta                 973                658
    ##  3 Baltimore              2827               1154
    ##  4 Baton Rouge             424                244
    ##  5 Birmingham              800                517
    ##  6 Boston                  614                304
    ##  7 Buffalo                 521                210
    ##  8 Charlotte               687                525
    ##  9 Chicago                5535               1849
    ## 10 Cincinnati              694                434
    ## # ℹ 40 more rows
…
